traffic_light_quartus2/simulation/qsim/traffic_light.msim.vcd
$comment
	File created using the following command:
		vcd file traffic_light.msim.vcd -direction
$end
$date
	Wed Dec 01 19:48:46 2021
$end
$version
	ModelSim Version 10.1d
$end
$timescale
	1ps
$end
$scope module traffic_light_vlg_vec_tst $end
$var reg 1 ! clk $end
$var reg 1 " stby $end
$var wire 1 # green $end
$var wire 1 $ red $end
$var wire 1 % yellow $end
$var wire 1 & sampler $end
$scope module i1 $end
$var wire 1 ' gnd $end
$var wire 1 ( vcc $end
$var wire 1 ) unknown $end
$var tri1 1 * devclrn $end
$var tri1 1 + devpor $end
$var tri1 1 , devoe $end
$var wire 1 - Add0~0_combout $end
$var wire 1 . Add0~1_combout $end
$var wire 1 / clk~combout $end
$var wire 1 0 Selector3~0_combout $end
$var wire 1 1 nx_counter[1]~0_combout $end
$var wire 1 2 stby~combout $end
$var wire 1 3 nx_counter[0]~2_combout $end
$var wire 1 4 Selector0~0_combout $end
$var wire 1 5 nx_counter[2]~1_combout $end
$var wire 1 6 Equal1~0_combout $end
$var wire 1 7 pr_state.xanh~0_combout $end
$var wire 1 8 pr_state.xanh~regout $end
$var wire 1 9 pr_state.off~regout $end
$var wire 1 : Selector0~1_combout $end
$var wire 1 ; pr_state.vang~regout $end
$var wire 1 < Selector1~0_combout $end
$var wire 1 = Selector1~1_combout $end
$var wire 1 > pr_state.do~regout $end
$var wire 1 ? pr_counter [2] $end
$var wire 1 @ pr_counter [1] $end
$var wire 1 A pr_counter [0] $end
$upscope $end
$upscope $end
$enddefinitions $end
#0
$dumpvars
0!
1"
0#
0$
0%
x&
0'
1(
x)
1*
1+
1,
1-
0.
0/
10
01
12
03
04
05
16
07
08
09
1:
0;
0<
0=
0>
0A
0@
0?
$end
#2000
1!
1/
0&
#4000
0!
0/
1&
#6000
1!
1/
0&
#8000
0!
0/
1&
#10000
1!
1/
0&
#12000
0!
0/
1&
#14000
1!
1/
0&
#16000
0!
0/
1&
#18000
1!
1/
0&
#20000
0!
0/
1&
#22000
1!
1/
0&
#24000
0!
0/
1&
#26000
1!
1/
0&
#28000
0!
0/
1&
#30000
0"
1!
02
1/
0&
1;
19
14
0:
1%
1:
13
11
#32000
0!
0/
1&
#34000
1!
1/
0&
1A
1@
06
03
#36000
0!
0/
1&
#38000
1!
1/
0&
0A
13
1.
0-
15
01
#40000
0!
0/
1&
#42000
1!
1/
0&
1?
1A
0@
03
#44000
0!
0/
1&
#46000
1!
1/
0&
0A
1<
04
13
1-
1=
0:
05
03
#48000
0!
0/
1&
#50000
1!
1/
0&
1>
0;
0?
0<
00
16
0.
1$
0%
0=
17
#52000
0!
0/
1&
#54000
1!
1/
0&
0>
18
07
1:
0$
1#
#56000
0!
0/
1&
#58000
1!
1/
0&
1;
08
14
0:
10
1%
0#
1:
13
11
#60000
0!
0/
1&
#62000
1!
1/
0&
1A
1@
06
03
#64000
0!
0/
1&
#66000
1!
1/
0&
0A
13
1.
0-
15
01
#68000
0!
0/
1&
#70000
1!
1/
0&
1?
1A
0@
03
#72000
0!
0/
1&
#74000
1!
1/
0&
0A
1<
04
13
1-
1=
0:
05
03
#76000
0!
0/
1&
#78000
1!
1/
0&
1>
0;
0?
0<
00
16
0.
1$
0%
0=
17
#80000
0!
0/
1&
#82000
1!
1/
0&
0>
18
07
1:
0$
1#
#84000
0!
0/
1&
#86000
1!
1/
0&
1;
08
14
0:
10
1%
0#
1:
13
11
#88000
0!
0/
1&
#90000
1!
1/
0&
1A
1@
06
03
#92000
0!
0/
1&
#94000
1!
1/
0&
0A
13
1.
0-
15
01
#96000
0!
0/
1&
#98000
1!
1/
0&
1?
1A
0@
03
#100000
0!
0/
1&
#102000
1!
1/
0&
0A
1<
04
13
1-
1=
0:
05
03
#104000
0!
0/
1&
#106000
1!
1/
0&
1>
0;
0?
0<
00
16
0.
1$
0%
0=
17
#108000
0!
0/
1&
#110000
1!
1/
0&
0>
18
07
1:
0$
1#
#112000
0!
0/
1&
#114000
1!
1/
0&
1;
08
14
0:
10
1%
0#
1:
13
11
#116000
0!
0/
1&
#118000
1!
1/
0&
1A
1@
06
03
#120000
0!
0/
1&
#122000
1!
1/
0&
0A
13
1.
0-
15
01
#124000
0!
0/
1&
#126000
1!
1/
0&
1?
1A
0@
03
#128000
0!
0/
1&
#130000
1!
1/
0&
0A
1<
04
13
1-
1=
0:
05
03
#132000
0!
0/
1&
#134000
1!
1/
0&
1>
0;
0?
0<
00
16
0.
1$
0%
0=
17
#136000
0!
0/
1&
#138000
1!
1/
0&
0>
18
07
1:
0$
1#
#140000
0!
0/
1&
#142000
1!
1/
0&
1;
08
14
0:
10
1%
0#
1:
13
11
#144000
0!
0/
1&
#146000
1!
1/
0&
1A
1@
06
03
#148000
0!
0/
1&
#150000
1!
1/
0&
0A
13
1.
0-
15
01
#152000
0!
0/
1&
#154000
1!
1/
0&
1?
1A
0@
03
#156000
0!
0/
1&
#158000
1!
1/
0&
0A
1<
04
13
1-
1=
0:
05
03
#160000
0!
0/
1&
#162000
1!
1/
0&
1>
0;
0?
0<
00
16
0.
1$
0%
0=
17
#164000
0!
0/
1&
#166000
1!
1/
0&
0>
18
07
1:
0$
1#
#168000
0!
0/
1&
#170000
1!
1/
0&
1;
08
14
0:
10
1%
0#
1:
13
11
#172000
0!
0/
1&
#174000
1!
1/
0&
1A
1@
06
03
#176000
0!
0/
1&
#178000
1!
1/
0&
0A
13
1.
0-
15
01
#180000
0!
0/
1&
#182000
1!
1/
0&
1?
1A
0@
03
#184000
0!
0/
1&
#186000
1!
1/
0&
0A
1<
04
13
1-
1=
0:
05
03
#188000
0!
0/
1&
#190000
1!
1/
0&
1>
0;
0?
0<
00
16
0.
1$
0%
0=
17
#192000
0!
0/
1&
#194000
1!
1/
0&
0>
18
07
1:
0$
1#
#196000
0!
0/
1&
#198000
1!
1/
0&
1;
08
14
0:
10
1%
0#
1:
13
11
#200000
0!
0/
1&
#202000
1!
1/
0&
1A
1@
06
03
#204000
0!
0/
1&
#206000
1!
1/
0&
0A
13
1.
0-
15
01
#208000
0!
0/
1&
#210000
1!
1/
0&
1?
1A
0@
03
#212000
0!
0/
1&
#214000
1!
1/
0&
0A
1<
04
13
1-
1=
0:
05
03
#216000
0!
0/
1&
#218000
1!
1/
0&
1>
0;
0?
0<
00
16
0.
1$
0%
0=
17
#220000
0!
0/
1&
#222000
1!
1/
0&
0>
18
07
1:
0$
1#
#224000
0!
0/
1&
#226000
1!
1/
0&
1;
08
14
0:
10
1%
0#
1:
13
11
#228000
0!
0/
1&
#230000
1!
1/
0&
1A
1@
06
03
#232000
0!
0/
1&
#234000
1!
1/
0&
0A
13
1.
0-
15
01
#236000
0!
0/
1&
#238000
1!
1/
0&
1?
1A
0@
03
#240000
0!
0/
1&
#242000
1!
1/
0&
0A
1<
04
13
1-
1=
0:
05
03
#244000
0!
0/
1&
#246000
1!
1/
0&
1>
0;
0?
0<
00
16
0.
1$
0%
0=
17
#248000
0!
0/
1&
#250000
1!
1/
0&
0>
18
07
1:
0$
1#
#252000
0!
0/
1&
#254000
1!
1/
0&
1;
08
14
0:
10
1%
0#
1:
13
11
#256000
0!
0/
1&
#258000
1!
1/
0&
1A
1@
06
03
#260000
0!
0/
1&
#262000
1!
1/
0&
0A
13
1.
0-
15
01
#264000
0!
0/
1&
#266000
1!
1/
0&
1?
1A
0@
03
#268000
0!
0/
1&
#270000
1!
1/
0&
0A
1<
04
13
1-
1=
0:
05
03
#272000
0!
0/
1&
#274000
1!
1/
0&
1>
0;
0?
0<
00
16
0.
1$
0%
0=
17
#276000
0!
0/
1&
#278000
1!
1/
0&
0>
18
07
1:
0$
1#
#280000
0!
0/
1&
#282000
1!
1/
0&
1;
08
14
0:
10
1%
0#
1:
13
11
#284000
0!
0/
1&
#286000
1!
1/
0&
1A
1@
06
03
#288000
0!
0/
1&
#290000
1!
1/
0&
0A
13
1.
0-
15
01
#292000
0!
0/
1&
#294000
1!
1/
0&
1?
1A
0@
03
#296000
0!
0/
1&
#298000
1!
1/
0&
0A
1<
04
13
1-
1=
0:
05
03
#300000
0!
0/
1&
#302000
1!
1/
0&
1>
0;
0?
0<
00
16
0.
1$
0%
0=
17
#304000
0!
0/
1&
#306000
1!
1/
0&
0>
18
07
1:
0$
1#
#308000
0!
0/
1&
#310000
1!
1/
0&
1;
08
14
0:
10
1%
0#
1:
13
11
#312000
0!
0/
1&
#314000
1!
1/
0&
1A
1@
06
03
#316000
0!
0/
1&
#318000
1!
1/
0&
0A
13
1.
0-
15
01
#320000
0!
0/
1&
#322000
1!
1/
0&
1?
1A
0@
03
#324000
0!
0/
1&
#326000
1!
1/
0&
0A
1<
04
13
1-
1=
0:
05
03
#328000
0!
0/
1&
#330000
1!
1/
0&
1>
0;
0?
0<
00
16
0.
1$
0%
0=
17
#332000
0!
0/
1&
#334000
1!
1/
0&
0>
18
07
1:
0$
1#
#336000
0!
0/
1&
#338000
1!
1/
0&
1;
08
14
0:
10
1%
0#
1:
13
11
#340000
0!
0/
1&
#342000
1!
1/
0&
1A
1@
06
03
#344000
0!
0/
1&
#346000
1!
1/
0&
0A
13
1.
0-
15
01
#348000
0!
0/
1&
#350000
1!
1/
0&
1?
1A
0@
03
#352000
0!
0/
1&
#354000
1!
1/
0&
0A
1<
04
13
1-
1=
0:
05
03
#356000
0!
0/
1&
#358000
1!
1/
0&
1>
0;
0?
0<
00
16
0.
1$
0%
0=
17
#360000
0!
0/
1&
#362000
1!
1/
0&
0>
18
07
1:
0$
1#
#364000
0!
0/
1&
#366000
1!
1/
0&
1;
08
14
0:
10
1%
0#
1:
13
11
#368000
0!
0/
1&
#370000
1!
1/
0&
1A
1@
06
03
#372000
0!
0/
1&
#374000
1!
1/
0&
0A
13
1.
0-
15
01
#376000
0!
0/
1&
#378000
1!
1/
0&
1?
1A
0@
03
#380000
0!
0/
1&
#382000
1!
1/
0&
0A
1<
04
13
1-
1=
0:
05
03
#384000
0!
0/
1&
#386000
1!
1/
0&
1>
0;
0?
0<
00
16
0.
1$
0%
0=
17
#388000
0!
0/
1&
#390000
1!
1/
0&
0>
18
07
1:
0$
1#
#392000
0!
0/
1&
#394000
1!
1/
0&
1;
08
14
0:
10
1%
0#
1:
13
11
#396000
0!
0/
1&
#398000
1!
1/
0&
1A
1@
06
03
#400000
0!
0/
1&
#402000
1!
1/
0&
0A
13
1.
0-
15
01
#404000
0!
0/
1&
#406000
1!
1/
0&
1?
1A
0@
03
#408000
0!
0/
1&
#410000
1!
1/
0&
0A
1<
04
13
1-
1=
0:
05
03
#412000
0!
0/
1&
#414000
1!
1/
0&
1>
0;
0?
0<
00
16
0.
1$
0%
0=
17
#416000
0!
0/
1&
#418000
1!
1/
0&
0>
18
07
1:
0$
1#
#420000
0!
0/
1&
#422000
1!
1/
0&
1;
08
14
0:
10
1%
0#
1:
13
11
#424000
0!
0/
1&
#426000
1!
1/
0&
1A
1@
06
03
#428000
0!
0/
1&
#430000
1!
1/
0&
0A
13
1.
0-
15
01
#432000
0!
0/
1&
#434000
1!
1/
0&
1?
1A
0@
03
#436000
0!
0/
1&
#438000
1!
1/
0&
0A
1<
04
13
1-
1=
0:
05
03
#440000
0!
0/
1&
#442000
1!
1/
0&
1>
0;
0?
0<
00
16
0.
1$
0%
0=
17
#444000
0!
0/
1&
#446000
1!
1/
0&
0>
18
07
1:
0$
1#
#448000
0!
0/
1&
#450000
1!
1/
0&
1;
08
14
0:
10
1%
0#
1:
13
11
#452000
0!
0/
1&
#454000
1!
1/
0&
1A
1@
06
03
#456000
0!
0/
1&
#458000
1!
1/
0&
0A
13
1.
0-
15
01
#460000
0!
0/
1&
#462000
1!
1/
0&
1?
1A
0@
03
#464000
0!
0/
1&
#466000
1!
1/
0&
0A
1<
04
13
1-
1=
0:
05
03
#468000
0!
0/
1&
#470000
1!
1/
0&
1>
0;
0?
0<
00
16
0.
1$
0%
0=
17
#472000
0!
0/
1&
#474000
1!
1/
0&
0>
18
07
1:
0$
1#
#476000
0!
0/
1&
#478000
1!
1/
0&
1;
08
14
0:
10
1%
0#
1:
13
11
#480000
0!
0/
1&
#482000
1!
1/
0&
1A
1@
06
03
#484000
0!
0/
1&
#486000
1!
1/
0&
0A
13
1.
0-
15
01
#488000
0!
0/
1&
#490000
1!
1/
0&
1?
1A
0@
03
#492000
0!
0/
1&
#494000
1!
1/
0&
0A
1<
04
13
1-
1=
0:
05
03
#496000
0!
0/
1&
#498000
1!
1/
0&
1>
0;
0?
0<
00
16
0.
1$
0%
0=
17
#500000
0!
0/
1&
#502000
1!
1/
0&
0>
18
07
1:
0$
1#
#504000
0!
0/
1&
#506000
1!
1/
0&
1;
08
14
0:
10
1%
0#
1:
13
11
#508000
0!
0/
1&
#510000
1!
1/
0&
1A
1@
06
03
#512000
0!
0/
1&
#514000
1!
1/
0&
0A
13
1.
0-
15
01
#516000
0!
0/
1&
#518000
1!
1/
0&
1?
1A
0@
03
#520000
0!
0/
1&
#522000
1!
1/
0&
0A
1<
04
13
1-
1=
0:
05
03
#524000
0!
0/
1&
#526000
1!
1/
0&
1>
0;
0?
0<
00
16
0.
1$
0%
0=
17
#528000
0!
0/
1&
#530000
1!
1/
0&
0>
18
07
1:
0$
1#
#532000
0!
0/
1&
#534000
1!
1/
0&
1;
08
14
0:
10
1%
0#
1:
13
11
#536000
0!
0/
1&
#538000
1!
1/
0&
1A
1@
06
03
#540000
0!
0/
1&
#542000
1!
1/
0&
0A
13
1.
0-
15
01
#544000
0!
0/
1&
#546000
1!
1/
0&
1?
1A
0@
03
#548000
0!
0/
1&
#550000
1!
1/
0&
0A
1<
04
13
1-
1=
0:
05
03
#552000
0!
0/
1&
#554000
1!
1/
0&
1>
0;
0?
0<
00
16
0.
1$
0%
0=
17
#556000
0!
0/
1&
#558000
1!
1/
0&
0>
18
07
1:
0$
1#
#560000
0!
0/
1&
#562000
1!
1/
0&
1;
08
14
0:
10
1%
0#
1:
13
11
#564000
0!
0/
1&
#566000
1!
1/
0&
1A
1@
06
03
#568000
0!
0/
1&
#570000
1!
1/
0&
0A
13
1.
0-
15
01
#572000
0!
0/
1&
#574000
1!
1/
0&
1?
1A
0@
03
#576000
0!
0/
1&
#578000
1!
1/
0&
0A
1<
04
13
1-
1=
0:
05
03
#580000
0!
0/
1&
#582000
1!
1/
0&
1>
0;
0?
0<
00
16
0.
1$
0%
0=
17
#584000
0!
0/
1&
#586000
1!
1/
0&
0>
18
07
1:
0$
1#
#588000
0!
0/
1&
#590000
1!
1/
0&
1;
08
14
0:
10
1%
0#
1:
13
11
#592000
0!
0/
1&
#594000
1!
1/
0&
1A
1@
06
03
#596000
0!
0/
1&
#598000
1!
1/
0&
0A
13
1.
0-
15
01
#600000
0!
0/
1&
#602000
1!
1/
0&
1?
1A
0@
03
#604000
0!
0/
1&
#606000
1!
1/
0&
0A
1<
04
13
1-
1=
0:
05
03
#608000
0!
0/
1&
#610000
1!
1/
0&
1>
0;
0?
0<
00
16
0.
1$
0%
0=
17
#612000
0!
0/
1&
#614000
1!
1/
0&
0>
18
07
1:
0$
1#
#616000
0!
0/
1&
#618000
1!
1/
0&
1;
08
14
0:
10
1%
0#
1:
13
11
#620000
0!
0/
1&
#622000
1!
1/
0&
1A
1@
06
03
#624000
0!
0/
1&
#626000
1!
1/
0&
0A
13
1.
0-
15
01
#628000
0!
0/
1&
#630000
1!
1/
0&
1?
1A
0@
03
#632000
0!
0/
1&
#634000
1!
1/
0&
0A
1<
04
13
1-
1=
0:
05
03
#636000
0!
0/
1&
#638000
1!
1/
0&
1>
0;
0?
0<
00
16
0.
1$
0%
0=
17
#640000
0!
0/
1&
#642000
1!
1/
0&
0>
18
07
1:
0$
1#
#644000
0!
0/
1&
#646000
1!
1/
0&
1;
08
14
0:
10
1%
0#
1:
13
11
#648000
0!
0/
1&
#650000
1!
1/
0&
1A
1@
06
03
#652000
0!
0/
1&
#654000
1!
1/
0&
0A
13
1.
0-
15
01
#656000
0!
0/
1&
#658000
1!
1/
0&
1?
1A
0@
03
#660000
0!
0/
1&
#662000
1!
1/
0&
0A
1<
04
13
1-
1=
0:
05
03
#664000
0!
0/
1&
#666000
1!
1/
0&
1>
0;
0?
0<
00
16
0.
1$
0%
0=
17
#668000
0!
0/
1&
#670000
1!
1/
0&
0>
18
07
1:
0$
1#
#672000
0!
0/
1&
#674000
1!
1/
0&
1;
08
14
0:
10
1%
0#
1:
13
11
#676000
0!
0/
1&
#678000
1!
1/
0&
1A
1@
06
03
#680000
0!
0/
1&
#682000
1!
1/
0&
0A
13
1.
0-
15
01
#684000
0!
0/
1&
#686000
1!
1/
0&
1?
1A
0@
03
#688000
0!
0/
1&
#690000
1!
1/
0&
0A
1<
04
13
1-
1=
0:
05
03
#692000
0!
0/
1&
#694000
1!
1/
0&
1>
0;
0?
0<
00
16
0.
1$
0%
0=
17
#696000
0!
0/
1&
#698000
1!
1/
0&
0>
18
07
1:
0$
1#
#700000
0!
0/
1&
#702000
1!
1/
0&
1;
08
14
0:
10
1%
0#
1:
13
11
#704000
0!
0/
1&
#706000
1!
1/
0&
1A
1@
06
03
#708000
0!
0/
1&
#710000
1!
1/
0&
0A
13
1.
0-
15
01
#712000
0!
0/
1&
#714000
1!
1/
0&
1?
1A
0@
03
#716000
0!
0/
1&
#718000
1!
1/
0&
0A
1<
04
13
1-
1=
0:
05
03
#720000
0!
0/
1&
#722000
1!
1/
0&
1>
0;
0?
0<
00
16
0.
1$
0%
0=
17
#724000
0!
0/
1&
#726000
1!
1/
0&
0>
18
07
1:
0$
1#
#728000
0!
0/
1&
#730000
1!
1/
0&
1;
08
14
0:
10
1%
0#
1:
13
11
#732000
0!
0/
1&
#734000
1!
1/
0&
1A
1@
06
03
#736000
0!
0/
1&
#738000
1!
1/
0&
0A
13
1.
0-
15
01
#740000
0!
0/
1&
#742000
1!
1/
0&
1?
1A
0@
03
#744000
0!
0/
1&
#746000
1!
1/
0&
0A
1<
04
13
1-
1=
0:
05
03
#748000
0!
0/
1&
#750000
1!
1/
0&
1>
0;
0?
0<
00
16
0.
1$
0%
0=
17
#752000
0!
0/
1&
#754000
1!
1/
0&
0>
18
07
1:
0$
1#
#756000
0!
0/
1&
#758000
1!
1/
0&
1;
08
14
0:
10
1%
0#
1:
13
11
#760000
0!
0/
1&
#762000
1!
1/
0&
1A
1@
06
03
#764000
0!
0/
1&
#766000
1!
1/
0&
0A
13
1.
0-
15
01
#768000
0!
0/
1&
#770000
1!
1/
0&
1?
1A
0@
03
#772000
0!
0/
1&
#774000
1!
1/
0&
0A
1<
04
13
1-
1=
0:
05
03
#776000
0!
0/
1&
#778000
1!
1/
0&
1>
0;
0?
0<
00
16
0.
1$
0%
0=
17
#780000
0!
0/
1&
#782000
1!
1/
0&
0>
18
07
1:
0$
1#
#784000
0!
0/
1&
#786000
1!
1/
0&
1;
08
14
0:
10
1%
0#
1:
13
11
#788000
0!
0/
1&
#790000
1!
1/
0&
1A
1@
06
03
#792000
0!
0/
1&
#794000
1!
1/
0&
0A
13
1.
0-
15
01
#796000
0!
0/
1&
#798000
1!
1/
0&
1?
1A
0@
03
#800000
0!
0/
1&
#802000
1!
1/
0&
0A
1<
04
13
1-
1=
0:
05
03
#804000
0!
0/
1&
#806000
1!
1/
0&
1>
0;
0?
0<
00
16
0.
1$
0%
0=
17
#808000
0!
0/
1&
#810000
1!
1/
0&
0>
18
07
1:
0$
1#
#812000
0!
0/
1&
#814000
1!
1/
0&
1;
08
14
0:
10
1%
0#
1:
13
11
#816000
0!
0/
1&
#818000
1!
1/
0&
1A
1@
06
03
#820000
0!
0/
1&
#822000
1!
1/
0&
0A
13
1.
0-
15
01
#824000
0!
0/
1&
#826000
1!
1/
0&
1?
1A
0@
03
#828000
0!
0/
1&
#830000
1!
1/
0&
0A
1<
04
13
1-
1=
0:
05
03
#832000
0!
0/
1&
#834000
1!
1/
0&
1>
0;
0?
0<
00
16
0.
1$
0%
0=
17
#836000
0!
0/
1&
#838000
1!
1/
0&
0>
18
07
1:
0$
1#
#840000
0!
0/
1&
#842000
1!
1/
0&
1;
08
14
0:
10
1%
0#
1:
13
11
#844000
0!
0/
1&
#846000
1!
1/
0&
1A
1@
06
03
#848000
0!
0/
1&
#850000
1!
1/
0&
0A
13
1.
0-
15
01
#852000
0!
0/
1&
#854000
1!
1/
0&
1?
1A
0@
03
#856000
0!
0/
1&
#858000
1!
1/
0&
0A
1<
04
13
1-
1=
0:
05
03
#860000
0!
0/
1&
#862000
1!
1/
0&
1>
0;
0?
0<
00
16
0.
1$
0%
0=
17
#864000
0!
0/
1&
#866000
1!
1/
0&
0>
18
07
1:
0$
1#
#868000
0!
0/
1&
#870000
1!
1/
0&
1;
08
14
0:
10
1%
0#
1:
13
11
#872000
0!
0/
1&
#874000
1!
1/
0&
1A
1@
06
03
#876000
0!
0/
1&
#878000
1!
1/
0&
0A
13
1.
0-
15
01
#880000
0!
0/
1&
#882000
1!
1/
0&
1?
1A
0@
03
#884000
0!
0/
1&
#886000
1!
1/
0&
0A
1<
04
13
1-
1=
0:
05
03
#888000
0!
0/
1&
#890000
1!
1/
0&
1>
0;
0?
0<
00
16
0.
1$
0%
0=
17
#892000
0!
0/
1&
#894000
1!
1/
0&
0>
18
07
1:
0$
1#
#896000
0!
0/
1&
#898000
1!
1/
0&
1;
08
14
0:
10
1%
0#
1:
13
11
#900000
0!
0/
1&
#902000
1!
1/
0&
1A
1@
06
03
#904000
0!
0/
1&
#906000
1!
1/
0&
0A
13
1.
0-
15
01
#908000
0!
0/
1&
#910000
1!
1/
0&
1?
1A
0@
03
#912000
0!
0/
1&
#914000
1!
1/
0&
0A
1<
04
13
1-
1=
0:
05
03
#916000
0!
0/
1&
#918000
1!
1/
0&
1>
0;
0?
0<
00
16
0.
1$
0%
0=
17
#920000
0!
0/
1&
#922000
1!
1/
0&
0>
18
07
1:
0$
1#
#924000
0!
0/
1&
#926000
1!
1/
0&
1;
08
14
0:
10
1%
0#
1:
13
11
#928000
0!
0/
1&
#930000
1!
1/
0&
1A
1@
06
03
#932000
0!
0/
1&
#934000
1!
1/
0&
0A
13
1.
0-
15
01
#936000
0!
0/
1&
#938000
1!
1/
0&
1?
1A
0@
03
#940000
0!
0/
1&
#942000
1!
1/
0&
0A
1<
04
13
1-
1=
0:
05
03
#944000
0!
0/
1&
#946000
1!
1/
0&
1>
0;
0?
0<
00
16
0.
1$
0%
0=
17
#948000
0!
0/
1&
#950000
1!
1/
0&
0>
18
07
1:
0$
1#
#952000
0!
0/
1&
#954000
1!
1/
0&
1;
08
14
0:
10
1%
0#
1:
13
11
#956000
0!
0/
1&
#958000
1!
1/
0&
1A
1@
06
03
#960000
0!
0/
1&
#962000
1!
1/
0&
0A
13
1.
0-
15
01
#964000
0!
0/
1&
#966000
1!
1/
0&
1?
1A
0@
03
#968000
0!
0/
1&
#970000
1!
1/
0&
0A
1<
04
13
1-
1=
0:
05
03
#972000
0!
0/
1&
#974000
1!
1/
0&
1>
0;
0?
0<
00
16
0.
1$
0%
0=
17
#976000
0!
0/
1&
#978000
1!
1/
0&
0>
18
07
1:
0$
1#
#980000
0!
0/
1&
#982000
1!
1/
0&
1;
08
14
0:
10
1%
0#
1:
13
11
#984000
0!
0/
1&
#986000
1!
1/
0&
1A
1@
06
03
#988000
0!
0/
1&
#990000
1!
1/
0&
0A
13
1.
0-
15
01
#992000
0!
0/
1&
#994000
1!
1/
0&
1?
1A
0@
03
#996000
0!
0/
1&
#998000
1!
1/
0&
0A
1<
04
13
1-
1=
0:
05
03
